Exploratory Visual Analysis
…
Normalization

The drawback of looking at the frequency curves is that the number of cases in each of the combinations of the two types of exposure is not related to the shape of the distributions. This is akin to the notion that in a contingency table the margins are fixed. Since we are interested in the shape of the distribution of EDVisits, we are going to normalize the frequency in each combination of the two exposure types.

We show the results of the normalization code below:

tri_df %>%
  mutate(RoadwayExposure = paste0("RoadwayExp = ", RoadwayExposure),
         MaxPMExposure = paste0("MaxPMExp = ", MaxPMExposure)) %>%
  group_by(RoadwayExposure, MaxPMExposure) %>%
  mutate(Rate = round(Frequency / sum(Frequency),2)) %>%
  arrange(MaxPMExposure, RoadwayExposure, EDVisits)

## # A tibble: 300 x 5
## # Groups:   RoadwayExposure, MaxPMExposure [30]
##    EDVisits RoadwayExposure MaxPMExposure Frequency  Rate
##       <dbl> <chr>           <chr>             <int> <dbl>
##  1        0 RoadwayExp = 1  MaxPMExp = 1        231  0.75
##  2        1 RoadwayExp = 1  MaxPMExp = 1         44  0.14
##  3        2 RoadwayExp = 1  MaxPMExp = 1         26  0.08
##  4        3 RoadwayExp = 1  MaxPMExp = 1          5  0.02
##  5        4 RoadwayExp = 1  MaxPMExp = 1          2  0.01
##  6        5 RoadwayExp = 1  MaxPMExp = 1          0  0   
##  7        6 RoadwayExp = 1  MaxPMExp = 1          0  0   
##  8        7 RoadwayExp = 1  MaxPMExp = 1          0  0   
##  9        8 RoadwayExp = 1  MaxPMExp = 1          0  0   
## 10        9 RoadwayExp = 1  MaxPMExp = 1          0  0   
## #  with 290 more rows
…
